<?xml version="1.0" encoding="utf-8"?>
<!-- Generator: Adobe Illustrator 22.0.1, SVG Export Plug-In . SVG Version: 6.00 Build 0)  -->
<svg version="1.1" xmlns="http://www.w3.org/2000/svg" xmlns:xlink="http://www.w3.org/1999/xlink" x="0px" y="0px"
	 viewBox="0 0 48 48" enable-background="new 0 0 48 48" xml:space="preserve">
<g id="pictogram">
	<g>
		<g>
			<rect x="23" y="28" width="2" height="9"/>
		</g>
		<g>
			<rect x="23" y="11" width="2" height="9"/>
		</g>
		<g>
			<rect x="26.692" y="18.47" transform="matrix(0.8463 -0.5328 0.5328 0.8463 -5.5775 19.6113)" width="9" height="2"/>
		</g>
		<g>
			<rect x="30.192" y="24.03" transform="matrix(0.5329 -0.8462 0.8462 0.5329 -9.5721 39.7187)" width="2" height="9"/>
		</g>
		<g>
			<rect x="12.139" y="27.25" transform="matrix(0.8661 -0.4999 0.4999 0.8661 -11.8943 12.1016)" width="9" height="2"/>
		</g>
		<g>
			<rect x="15.639" y="15.25" transform="matrix(0.5 -0.866 0.866 0.5 -8.7845 24.285)" width="2" height="9"/>
		</g>
		<g>
			<path d="M23.999,12.002c-0.671,0-1.342-0.137-1.977-0.411c-1.227-0.528-2.174-1.503-2.667-2.744
				c-0.494-1.241-0.474-2.6,0.054-3.827c1.09-2.532,4.037-3.705,6.569-2.613h0c2.531,1.091,3.703,4.039,2.612,6.57
				c-0.528,1.227-1.503,2.174-2.744,2.667C25.25,11.884,24.624,12.002,23.999,12.002z M24.004,4.001
				c-1.162,0-2.27,0.679-2.758,1.812c-0.317,0.736-0.329,1.551-0.033,2.296c0.296,0.745,0.864,1.329,1.6,1.646
				c0.737,0.317,1.551,0.329,2.295,0.033s1.329-0.864,1.646-1.6c0.654-1.519-0.049-3.287-1.567-3.942
				C24.801,4.08,24.399,4.001,24.004,4.001z"/>
		</g>
		<g>
			<path d="M23.997,45.998c-1.166,0-2.335-0.404-3.281-1.227c-2.079-1.811-2.298-4.975-0.487-7.055
				c1.811-2.079,4.975-2.297,7.055-0.487c2.079,1.811,2.297,4.975,0.487,7.055C26.784,45.417,25.394,45.998,23.997,45.998z
				 M24.004,38c-0.07,0-0.141,0.002-0.211,0.007c-0.8,0.055-1.53,0.418-2.056,1.022c-0.526,0.604-0.786,1.377-0.73,2.177
				c0.055,0.8,0.418,1.53,1.022,2.056c0.604,0.526,1.38,0.783,2.177,0.73c0.8-0.055,1.53-0.418,2.056-1.022
				c1.086-1.248,0.956-3.146-0.292-4.232C25.419,38.258,24.728,38,24.004,38z"/>
		</g>
		<g>
			<path d="M39.002,38c-0.028,0-0.057,0-0.085,0c-2.757-0.046-4.962-2.326-4.917-5.083c0.022-1.335,0.563-2.582,1.523-3.511
				c0.96-0.928,2.224-1.433,3.559-1.406c1.335,0.022,2.582,0.563,3.511,1.523c0.929,0.96,1.428,2.224,1.406,3.559
				c-0.022,1.335-0.563,2.582-1.523,3.511C41.537,37.502,40.306,38,39.002,38z M38.999,30c-0.782,0-1.521,0.298-2.084,0.844
				c-0.576,0.557-0.9,1.305-0.914,2.106c-0.027,1.654,1.296,3.021,2.95,3.049c0.808,0.032,1.56-0.286,2.136-0.843
				c0.576-0.557,0.9-1.305,0.914-2.106s-0.286-1.56-0.843-2.136c-0.557-0.576-1.305-0.9-2.106-0.914C39.033,30,39.016,30,38.999,30z
				"/>
		</g>
		<g>
			<path d="M39.002,20c-0.028,0-0.057,0-0.085,0c-1.335-0.022-2.582-0.563-3.511-1.523c-0.929-0.96-1.428-2.224-1.406-3.559
				c0.022-1.335,0.563-2.582,1.523-3.511c0.96-0.929,2.224-1.438,3.559-1.406c2.756,0.046,4.962,2.326,4.917,5.083
				c-0.022,1.335-0.563,2.582-1.523,3.511C41.537,19.502,40.306,20,39.002,20z M38.999,12c-0.782,0-1.521,0.298-2.084,0.844
				c-0.576,0.557-0.9,1.305-0.914,2.106s0.286,1.56,0.843,2.136c0.557,0.576,1.305,0.9,2.106,0.914
				c0.808,0.036,1.56-0.286,2.136-0.843c0.576-0.557,0.9-1.305,0.914-2.106c0.027-1.654-1.296-3.022-2.95-3.049
				C39.033,12,39.016,12,38.999,12z"/>
		</g>
		<g>
			<path d="M9.002,38c-0.028,0-0.057,0-0.085,0C6.16,37.953,3.955,35.673,4,32.917c0.022-1.335,0.563-2.582,1.523-3.511
				C6.483,28.478,7.731,27.974,9.083,28c1.335,0.022,2.582,0.563,3.511,1.523c0.929,0.96,1.428,2.224,1.406,3.559
				c-0.022,1.335-0.563,2.582-1.523,3.511C11.537,37.502,10.306,38,9.002,38z M8.999,30c-0.782,0-1.521,0.298-2.084,0.844
				C6.338,31.401,6.014,32.149,6,32.95C5.973,34.604,7.296,35.972,8.95,36c0.799,0.032,1.56-0.286,2.136-0.843
				c0.576-0.557,0.9-1.305,0.914-2.106s-0.286-1.56-0.843-2.136c-0.557-0.576-1.305-0.9-2.106-0.914C9.033,30,9.016,30,8.999,30z"/>
		</g>
		<g>
			<path d="M9.002,20c-0.028,0-0.057,0-0.085,0c-1.335-0.022-2.582-0.563-3.511-1.523C4.478,17.516,3.979,16.252,4,14.917
				c0.022-1.335,0.563-2.582,1.523-3.511C6.483,10.478,7.731,9.968,9.083,10c2.756,0.046,4.962,2.326,4.917,5.083
				c-0.022,1.335-0.563,2.582-1.523,3.511C11.537,19.502,10.306,20,9.002,20z M8.999,12c-0.782,0-1.521,0.298-2.084,0.844
				C6.338,13.401,6.014,14.149,6,14.95s0.286,1.56,0.843,2.136c0.557,0.576,1.305,0.9,2.106,0.914
				c0.799,0.036,1.56-0.286,2.136-0.843c0.576-0.557,0.9-1.305,0.914-2.106c0.027-1.654-1.296-3.022-2.95-3.049
				C9.033,12,9.016,12,8.999,12z"/>
		</g>
		<g>
			<path d="M24,29c-2.757,0-5-2.243-5-5s2.243-5,5-5s5,2.243,5,5S26.757,29,24,29z M24,21c-1.654,0-3,1.346-3,3s1.346,3,3,3
				s3-1.346,3-3S25.654,21,24,21z"/>
		</g>
	</g>
</g>
<g id="grid" display="none">
	<g display="inline">
		<line fill="none" stroke="#00AEEF" stroke-width="0.05" stroke-miterlimit="10" x1="48" y1="0" x2="48" y2="48"/>
		<line fill="none" stroke="#00AEEF" stroke-width="0.05" stroke-miterlimit="10" x1="47" y1="0" x2="47" y2="48"/>
		<line fill="none" stroke="#00AEEF" stroke-width="0.05" stroke-miterlimit="10" x1="46" y1="0" x2="46" y2="48"/>
		<line fill="none" stroke="#00AEEF" stroke-width="0.05" stroke-miterlimit="10" x1="45" y1="0" x2="45" y2="48"/>
		<line fill="none" stroke="#00AEEF" stroke-width="0.05" stroke-miterlimit="10" x1="44" y1="0" x2="44" y2="48"/>
		<line fill="none" stroke="#00AEEF" stroke-width="0.05" stroke-miterlimit="10" x1="43" y1="0" x2="43" y2="48"/>
		<line fill="none" stroke="#00AEEF" stroke-width="0.05" stroke-miterlimit="10" x1="42" y1="0" x2="42" y2="48"/>
		<line fill="none" stroke="#00AEEF" stroke-width="0.05" stroke-miterlimit="10" x1="41" y1="0" x2="41" y2="48"/>
		<line fill="none" stroke="#00AEEF" stroke-width="0.05" stroke-miterlimit="10" x1="40" y1="0" x2="40" y2="48"/>
		<line fill="none" stroke="#00AEEF" stroke-width="0.05" stroke-miterlimit="10" x1="39" y1="0" x2="39" y2="48"/>
		<line fill="none" stroke="#00AEEF" stroke-width="0.05" stroke-miterlimit="10" x1="38" y1="0" x2="38" y2="48"/>
		<line fill="none" stroke="#00AEEF" stroke-width="0.05" stroke-miterlimit="10" x1="37" y1="0" x2="37" y2="48"/>
		<line fill="none" stroke="#00AEEF" stroke-width="0.05" stroke-miterlimit="10" x1="36" y1="0" x2="36" y2="48"/>
		<line fill="none" stroke="#00AEEF" stroke-width="0.05" stroke-miterlimit="10" x1="35" y1="0" x2="35" y2="48"/>
		<line fill="none" stroke="#00AEEF" stroke-width="0.05" stroke-miterlimit="10" x1="34" y1="0" x2="34" y2="48"/>
		<line fill="none" stroke="#00AEEF" stroke-width="0.05" stroke-miterlimit="10" x1="33" y1="0" x2="33" y2="48"/>
		<line fill="none" stroke="#00AEEF" stroke-width="0.05" stroke-miterlimit="10" x1="32" y1="0" x2="32" y2="48"/>
		<line fill="none" stroke="#00AEEF" stroke-width="0.05" stroke-miterlimit="10" x1="31" y1="0" x2="31" y2="48"/>
		<line fill="none" stroke="#00AEEF" stroke-width="0.05" stroke-miterlimit="10" x1="30" y1="0" x2="30" y2="48"/>
		<line fill="none" stroke="#00AEEF" stroke-width="0.05" stroke-miterlimit="10" x1="29" y1="0" x2="29" y2="48"/>
		<line fill="none" stroke="#00AEEF" stroke-width="0.05" stroke-miterlimit="10" x1="28" y1="0" x2="28" y2="48"/>
		<line fill="none" stroke="#00AEEF" stroke-width="0.05" stroke-miterlimit="10" x1="27" y1="0" x2="27" y2="48"/>
		<line fill="none" stroke="#00AEEF" stroke-width="0.05" stroke-miterlimit="10" x1="26" y1="0" x2="26" y2="48"/>
		<line fill="none" stroke="#00AEEF" stroke-width="0.05" stroke-miterlimit="10" x1="25" y1="0" x2="25" y2="48"/>
		<line fill="none" stroke="#00AEEF" stroke-width="0.05" stroke-miterlimit="10" x1="24" y1="0" x2="24" y2="48"/>
		<line fill="none" stroke="#00AEEF" stroke-width="0.05" stroke-miterlimit="10" x1="23" y1="0" x2="23" y2="48"/>
		<line fill="none" stroke="#00AEEF" stroke-width="0.05" stroke-miterlimit="10" x1="22" y1="0" x2="22" y2="48"/>
		<line fill="none" stroke="#00AEEF" stroke-width="0.05" stroke-miterlimit="10" x1="21" y1="0" x2="21" y2="48"/>
		<line fill="none" stroke="#00AEEF" stroke-width="0.05" stroke-miterlimit="10" x1="20" y1="0" x2="20" y2="48"/>
		<line fill="none" stroke="#00AEEF" stroke-width="0.05" stroke-miterlimit="10" x1="19" y1="0" x2="19" y2="48"/>
		<line fill="none" stroke="#00AEEF" stroke-width="0.05" stroke-miterlimit="10" x1="18" y1="0" x2="18" y2="48"/>
		<line fill="none" stroke="#00AEEF" stroke-width="0.05" stroke-miterlimit="10" x1="17" y1="0" x2="17" y2="48"/>
		<line fill="none" stroke="#00AEEF" stroke-width="0.05" stroke-miterlimit="10" x1="16" y1="0" x2="16" y2="48"/>
		<line fill="none" stroke="#00AEEF" stroke-width="0.05" stroke-miterlimit="10" x1="15" y1="0" x2="15" y2="48"/>
		<line fill="none" stroke="#00AEEF" stroke-width="0.05" stroke-miterlimit="10" x1="14" y1="0" x2="14" y2="48"/>
		<line fill="none" stroke="#00AEEF" stroke-width="0.05" stroke-miterlimit="10" x1="13" y1="0" x2="13" y2="48"/>
		<line fill="none" stroke="#00AEEF" stroke-width="0.05" stroke-miterlimit="10" x1="12" y1="0" x2="12" y2="48"/>
		<line fill="none" stroke="#00AEEF" stroke-width="0.05" stroke-miterlimit="10" x1="11" y1="0" x2="11" y2="48"/>
		<line fill="none" stroke="#00AEEF" stroke-width="0.05" stroke-miterlimit="10" x1="10" y1="0" x2="10" y2="48"/>
		<line fill="none" stroke="#00AEEF" stroke-width="0.05" stroke-miterlimit="10" x1="9" y1="0" x2="9" y2="48"/>
		<line fill="none" stroke="#00AEEF" stroke-width="0.05" stroke-miterlimit="10" x1="8" y1="0" x2="8" y2="48"/>
		<line fill="none" stroke="#00AEEF" stroke-width="0.05" stroke-miterlimit="10" x1="7" y1="0" x2="7" y2="48"/>
		<line fill="none" stroke="#00AEEF" stroke-width="0.05" stroke-miterlimit="10" x1="6" y1="0" x2="6" y2="48"/>
		<line fill="none" stroke="#00AEEF" stroke-width="0.05" stroke-miterlimit="10" x1="5" y1="0" x2="5" y2="48"/>
		<line fill="none" stroke="#00AEEF" stroke-width="0.05" stroke-miterlimit="10" x1="4" y1="0" x2="4" y2="48"/>
		<line fill="none" stroke="#00AEEF" stroke-width="0.05" stroke-miterlimit="10" x1="3" y1="0" x2="3" y2="48"/>
		<line fill="none" stroke="#00AEEF" stroke-width="0.05" stroke-miterlimit="10" x1="2" y1="0" x2="2" y2="48"/>
		<line fill="none" stroke="#00AEEF" stroke-width="0.05" stroke-miterlimit="10" x1="1" y1="0" x2="1" y2="48"/>
		<line fill="none" stroke="#00AEEF" stroke-width="0.05" stroke-miterlimit="10" x1="0" y1="0" x2="0" y2="48"/>
		<line fill="none" stroke="#00AEEF" stroke-width="0.05" stroke-miterlimit="10" x1="48" y1="0" x2="0" y2="0"/>
		<line fill="none" stroke="#00AEEF" stroke-width="0.05" stroke-miterlimit="10" x1="48" y1="1" x2="0" y2="1"/>
		<line fill="none" stroke="#00AEEF" stroke-width="0.05" stroke-miterlimit="10" x1="48" y1="2" x2="0" y2="2"/>
		<line fill="none" stroke="#00AEEF" stroke-width="0.05" stroke-miterlimit="10" x1="48" y1="3" x2="0" y2="3"/>
		<line fill="none" stroke="#00AEEF" stroke-width="0.05" stroke-miterlimit="10" x1="48" y1="4" x2="0" y2="4"/>
		<line fill="none" stroke="#00AEEF" stroke-width="0.05" stroke-miterlimit="10" x1="48" y1="5" x2="0" y2="5"/>
		<line fill="none" stroke="#00AEEF" stroke-width="0.05" stroke-miterlimit="10" x1="48" y1="6" x2="0" y2="6"/>
		<line fill="none" stroke="#00AEEF" stroke-width="0.05" stroke-miterlimit="10" x1="48" y1="7" x2="0" y2="7"/>
		<line fill="none" stroke="#00AEEF" stroke-width="0.05" stroke-miterlimit="10" x1="48" y1="8" x2="0" y2="8"/>
		<line fill="none" stroke="#00AEEF" stroke-width="0.05" stroke-miterlimit="10" x1="48" y1="9" x2="0" y2="9"/>
		<line fill="none" stroke="#00AEEF" stroke-width="0.05" stroke-miterlimit="10" x1="48" y1="10" x2="0" y2="10"/>
		<line fill="none" stroke="#00AEEF" stroke-width="0.05" stroke-miterlimit="10" x1="48" y1="11" x2="0" y2="11"/>
		<line fill="none" stroke="#00AEEF" stroke-width="0.05" stroke-miterlimit="10" x1="48" y1="12" x2="0" y2="12"/>
		<line fill="none" stroke="#00AEEF" stroke-width="0.05" stroke-miterlimit="10" x1="48" y1="13" x2="0" y2="13"/>
		<line fill="none" stroke="#00AEEF" stroke-width="0.05" stroke-miterlimit="10" x1="48" y1="14" x2="0" y2="14"/>
		<line fill="none" stroke="#00AEEF" stroke-width="0.05" stroke-miterlimit="10" x1="48" y1="15" x2="0" y2="15"/>
		<line fill="none" stroke="#00AEEF" stroke-width="0.05" stroke-miterlimit="10" x1="48" y1="16" x2="0" y2="16"/>
		<line fill="none" stroke="#00AEEF" stroke-width="0.05" stroke-miterlimit="10" x1="48" y1="17" x2="0" y2="17"/>
		<line fill="none" stroke="#00AEEF" stroke-width="0.05" stroke-miterlimit="10" x1="48" y1="18" x2="0" y2="18"/>
		<line fill="none" stroke="#00AEEF" stroke-width="0.05" stroke-miterlimit="10" x1="48" y1="19" x2="0" y2="19"/>
		<line fill="none" stroke="#00AEEF" stroke-width="0.05" stroke-miterlimit="10" x1="48" y1="20" x2="0" y2="20"/>
		<line fill="none" stroke="#00AEEF" stroke-width="0.05" stroke-miterlimit="10" x1="48" y1="21" x2="0" y2="21"/>
		<line fill="none" stroke="#00AEEF" stroke-width="0.05" stroke-miterlimit="10" x1="48" y1="22" x2="0" y2="22"/>
		<line fill="none" stroke="#00AEEF" stroke-width="0.05" stroke-miterlimit="10" x1="48" y1="23" x2="0" y2="23"/>
		<line fill="none" stroke="#00AEEF" stroke-width="0.05" stroke-miterlimit="10" x1="48" y1="24" x2="0" y2="24"/>
		<line fill="none" stroke="#00AEEF" stroke-width="0.05" stroke-miterlimit="10" x1="48" y1="25" x2="0" y2="25"/>
		<line fill="none" stroke="#00AEEF" stroke-width="0.05" stroke-miterlimit="10" x1="48" y1="26" x2="0" y2="26"/>
		<line fill="none" stroke="#00AEEF" stroke-width="0.05" stroke-miterlimit="10" x1="48" y1="27" x2="0" y2="27"/>
		<line fill="none" stroke="#00AEEF" stroke-width="0.05" stroke-miterlimit="10" x1="48" y1="28" x2="0" y2="28"/>
		<line fill="none" stroke="#00AEEF" stroke-width="0.05" stroke-miterlimit="10" x1="48" y1="29" x2="0" y2="29"/>
		<line fill="none" stroke="#00AEEF" stroke-width="0.05" stroke-miterlimit="10" x1="48" y1="30" x2="0" y2="30"/>
		<line fill="none" stroke="#00AEEF" stroke-width="0.05" stroke-miterlimit="10" x1="48" y1="31" x2="0" y2="31"/>
		<line fill="none" stroke="#00AEEF" stroke-width="0.05" stroke-miterlimit="10" x1="48" y1="32" x2="0" y2="32"/>
		<line fill="none" stroke="#00AEEF" stroke-width="0.05" stroke-miterlimit="10" x1="48" y1="33" x2="0" y2="33"/>
		<line fill="none" stroke="#00AEEF" stroke-width="0.05" stroke-miterlimit="10" x1="48" y1="34" x2="0" y2="34"/>
		<line fill="none" stroke="#00AEEF" stroke-width="0.05" stroke-miterlimit="10" x1="48" y1="35" x2="0" y2="35"/>
		<line fill="none" stroke="#00AEEF" stroke-width="0.05" stroke-miterlimit="10" x1="48" y1="36" x2="0" y2="36"/>
		<line fill="none" stroke="#00AEEF" stroke-width="0.05" stroke-miterlimit="10" x1="48" y1="37" x2="0" y2="37"/>
		<line fill="none" stroke="#00AEEF" stroke-width="0.05" stroke-miterlimit="10" x1="48" y1="38" x2="0" y2="38"/>
		<line fill="none" stroke="#00AEEF" stroke-width="0.05" stroke-miterlimit="10" x1="48" y1="39" x2="0" y2="39"/>
		<line fill="none" stroke="#00AEEF" stroke-width="0.05" stroke-miterlimit="10" x1="48" y1="40" x2="0" y2="40"/>
		<line fill="none" stroke="#00AEEF" stroke-width="0.05" stroke-miterlimit="10" x1="48" y1="41" x2="0" y2="41"/>
		<line fill="none" stroke="#00AEEF" stroke-width="0.05" stroke-miterlimit="10" x1="48" y1="42" x2="0" y2="42"/>
		<line fill="none" stroke="#00AEEF" stroke-width="0.05" stroke-miterlimit="10" x1="48" y1="43" x2="0" y2="43"/>
		<line fill="none" stroke="#00AEEF" stroke-width="0.05" stroke-miterlimit="10" x1="48" y1="44" x2="0" y2="44"/>
		<line fill="none" stroke="#00AEEF" stroke-width="0.05" stroke-miterlimit="10" x1="48" y1="45" x2="0" y2="45"/>
		<line fill="none" stroke="#00AEEF" stroke-width="0.05" stroke-miterlimit="10" x1="48" y1="46" x2="0" y2="46"/>
		<line fill="none" stroke="#00AEEF" stroke-width="0.05" stroke-miterlimit="10" x1="48" y1="47" x2="0" y2="47"/>
		<line fill="none" stroke="#00AEEF" stroke-width="0.05" stroke-miterlimit="10" x1="48" y1="48" x2="0" y2="48"/>
	</g>
</g>
</svg>
