AutostopBit1,POE\AutoStop\AutoStop.GB,3,IN,75,13,Read,,SAFEBOOL,,,VAR,LOCAL,,
AutostopBit1,POE\AutoStop\AutoStop.GB,4,OUT,1,12,Write,,SAFEBOOL,,,VAR,LOCAL,,
AutostopBit2,POE\AutoStop\AutoStop.GB,5,IN,97,13,Read,,SAFEBOOL,,,VAR,LOCAL,,
AutostopBit2,POE\AutoStop\AutoStop.GB,6,OUT,123,37,Write,,SAFEBOOL,,,VAR,LOCAL,,
RS_S_1,POE\AutoStop\AutoStop.GB,0,,59,74,,,,,,VAR,FB,,
