<?xml version="1.0" encoding="utf-8"?>
<!-- Generator: Adobe Illustrator 22.0.1, SVG Export Plug-In . SVG Version: 6.00 Build 0)  -->
<svg version="1.1" xmlns="http://www.w3.org/2000/svg" xmlns:xlink="http://www.w3.org/1999/xlink" x="0px" y="0px"
	 viewBox="0 0 48 48" enable-background="new 0 0 48 48" xml:space="preserve">
<g id="pictogram">
	<path d="M43.518,28.146c-0.822-0.237-1.683-0.159-2.518,0.222V24v-4.359C41.406,19.834,41.914,20,42.5,20
		c1.098,0,2.109-0.5,2.778-1.371c0.669-0.872,0.886-1.995,0.595-3.079c-0.309-1.153-1.211-2.074-2.355-2.404
		c-0.822-0.237-1.683-0.159-2.518,0.222V9l-1-1h-5.359C34.834,7.594,35,7.086,35,6.5c0-1.098-0.5-2.109-1.371-2.778
		s-1.994-0.887-3.079-0.595c-1.153,0.309-2.074,1.211-2.404,2.355C27.909,6.304,27.986,7.164,28.367,8H23l-1,1v4.359
		C21.594,13.166,21.086,13,20.5,13c-1.098,0-2.109,0.5-2.778,1.371c-0.669,0.872-0.886,1.995-0.595,3.079
		c0.309,1.152,1.21,2.074,2.354,2.404c0.822,0.237,1.684,0.159,2.519-0.222V23H8l-1,1v3.359C6.594,27.166,6.086,27,5.5,27
		c-1.084,0-2.089,0.49-2.758,1.344c-0.669,0.855-0.899,1.961-0.634,3.034c0.289,1.171,1.219,2.142,2.366,2.474
		c0.826,0.24,1.688,0.162,2.525-0.219V39l1,1h4.359C12.166,40.406,12,40.914,12,41.5c0,1.084,0.49,2.089,1.344,2.758
		c0.623,0.486,1.378,0.741,2.157,0.741c0.291,0,0.585-0.035,0.877-0.107c1.169-0.289,2.141-1.218,2.474-2.366
		c0.24-0.824,0.163-1.688-0.219-2.525H23h7l0.907-1.421c-0.089-0.191-0.392-0.837-0.557-1.105c-0.32-0.518-0.413-0.988-0.283-1.438
		c0.135-0.467,0.527-0.85,1-0.977c0.486-0.129,0.964-0.042,1.344,0.25C32.785,35.596,33,36.029,33,36.5
		c0,0.282-0.108,0.583-0.351,0.975c-0.165,0.268-0.468,0.913-0.557,1.104L33,40h7l1-1v-4.359C41.406,34.834,41.914,35,42.5,35
		c1.098,0,2.109-0.5,2.778-1.371c0.669-0.872,0.886-1.995,0.595-3.079C45.564,29.396,44.662,28.476,43.518,28.146z M21.474,17.649
		c-0.518,0.321-0.988,0.415-1.438,0.283c-0.467-0.135-0.85-0.527-0.977-1c-0.131-0.486-0.042-0.964,0.25-1.344
		C19.596,15.215,20.029,15,20.5,15c0.282,0,0.583,0.108,0.975,0.351c0.268,0.165,0.913,0.468,1.104,0.557L24,15v-5h6l0.907-1.421
		c-0.089-0.191-0.392-0.837-0.557-1.105c-0.32-0.518-0.413-0.988-0.283-1.438c0.135-0.468,0.527-0.851,1-0.978
		c0.486-0.129,0.964-0.042,1.344,0.25C32.785,5.596,33,6.029,33,6.5c0,0.282-0.108,0.583-0.351,0.975
		c-0.165,0.268-0.468,0.913-0.557,1.104L33,10h6v5l1.421,0.907c0.191-0.089,0.836-0.391,1.105-0.557
		c0.517-0.32,0.986-0.414,1.438-0.283c0.468,0.135,0.851,0.527,0.978,1c0.131,0.486,0.042,0.964-0.25,1.344
		C43.404,17.785,42.971,18,42.5,18c-0.282,0-0.583-0.108-0.975-0.351c-0.268-0.165-0.913-0.468-1.104-0.557L39,18v5h-4.359
		C34.834,22.594,35,22.086,35,21.5c0-1.098-0.5-2.109-1.371-2.778s-1.994-0.887-3.079-0.595c-0.288,0.077-0.562,0.191-0.815,0.337
		c-0.102,0.058-0.184,0.143-0.278,0.211c-0.615,0.443-1.096,1.063-1.31,1.806c-0.118,0.411-0.158,0.832-0.121,1.254
		c0.019,0.211,0.057,0.423,0.114,0.634c0.057,0.211,0.133,0.422,0.229,0.631H24v-5l-1.421-0.907
		C22.388,17.182,21.742,17.484,21.474,17.649z M17,38l-0.907,1.421c0.089,0.191,0.392,0.837,0.557,1.105
		c0.321,0.519,0.413,0.989,0.282,1.441c-0.137,0.469-0.552,0.863-1.034,0.982c-0.48,0.119-0.948,0.022-1.32-0.268
		C14.21,42.396,14,41.965,14,41.5c0-0.282,0.108-0.583,0.351-0.975c0.165-0.268,0.468-0.913,0.557-1.104L14,38H9v-6l-1.421-0.907
		c-0.191,0.089-0.837,0.392-1.105,0.557c-0.518,0.321-0.989,0.416-1.442,0.281c-0.468-0.135-0.862-0.55-0.981-1.033
		c-0.119-0.479-0.023-0.948,0.268-1.32C4.604,29.21,5.035,29,5.5,29c0.282,0,0.583,0.108,0.975,0.351
		c0.268,0.165,0.913,0.468,1.104,0.557L9,29v-4h13v3.359C21.594,28.166,21.086,28,20.5,28c-0.272,0-0.539,0.031-0.797,0.091
		c-0.119,0.028-0.227,0.082-0.342,0.121c-0.134,0.046-0.273,0.081-0.401,0.143c-0.108,0.053-0.202,0.129-0.303,0.193
		c-0.122,0.076-0.25,0.142-0.362,0.234c-0.08,0.065-0.145,0.151-0.22,0.224c-0.113,0.11-0.233,0.211-0.332,0.337
		c-0.004,0.005-0.006,0.011-0.01,0.017c-0.003,0.004-0.007,0.007-0.01,0.011c-0.062,0.081-0.1,0.174-0.155,0.259
		c-0.088,0.138-0.183,0.272-0.251,0.419c-0.049,0.108-0.074,0.224-0.111,0.337c-0.047,0.139-0.104,0.275-0.133,0.42
		c-0.024,0.12-0.023,0.245-0.034,0.368c-0.013,0.143-0.037,0.284-0.033,0.429c0.004,0.126,0.033,0.251,0.05,0.378
		c0.018,0.133,0.02,0.265,0.053,0.397c0.004,0.015,0.01,0.03,0.014,0.045c0.002,0.009,0.002,0.018,0.004,0.027
		c0.005,0.018,0.016,0.032,0.021,0.05c0.073,0.253,0.171,0.497,0.3,0.725c0.024,0.044,0.054,0.082,0.081,0.125
		c0.122,0.195,0.259,0.381,0.415,0.548c0.045,0.048,0.092,0.09,0.139,0.135c0.171,0.164,0.355,0.314,0.555,0.439
		c0.031,0.019,0.062,0.036,0.093,0.054c0.234,0.137,0.482,0.249,0.743,0.325h0c0.002,0.001,0.004,0.002,0.007,0.003
		c0.168,0.048,0.339,0.075,0.51,0.097c0.037,0.005,0.073,0.017,0.109,0.021c0.132,0.013,0.266,0.005,0.399,0.002
		c0.078-0.002,0.156,0.008,0.234,0.001c0.132-0.011,0.264-0.044,0.395-0.071c0.08-0.016,0.16-0.021,0.24-0.043
		c0.211-0.057,0.422-0.133,0.631-0.229V38H17z M43.691,32.411C43.404,32.785,42.971,33,42.5,33c-0.282,0-0.583-0.108-0.975-0.351
		c-0.268-0.165-0.913-0.468-1.104-0.557L39,33v5h-4.359C34.834,37.594,35,37.086,35,36.5c0-1.098-0.5-2.109-1.371-2.778
		s-1.994-0.888-3.079-0.595c-1.152,0.309-2.074,1.21-2.404,2.354c-0.236,0.822-0.159,1.683,0.222,2.519H24v-5l-1.421-0.907
		c-0.191,0.089-0.837,0.392-1.105,0.557c-0.259,0.161-0.507,0.265-0.746,0.312c-0.005,0.001-0.01,0-0.015,0.001
		c-0.234,0.044-0.46,0.034-0.682-0.031c-0.35-0.101-0.658-0.358-0.842-0.684c-0.009-0.015-0.012-0.032-0.02-0.048
		c-0.048-0.092-0.089-0.188-0.115-0.288c-0.015-0.06-0.02-0.119-0.028-0.179c-0.009-0.059-0.022-0.118-0.024-0.176
		c-0.002-0.062,0.007-0.121,0.012-0.182c0.005-0.055,0.004-0.112,0.014-0.165c0.012-0.06,0.035-0.117,0.055-0.176
		c0.017-0.05,0.027-0.103,0.05-0.151c0.029-0.063,0.07-0.122,0.109-0.181c0.025-0.039,0.043-0.08,0.071-0.116
		c0.047-0.06,0.103-0.11,0.156-0.162c0.029-0.028,0.053-0.06,0.084-0.085c0.057-0.047,0.122-0.082,0.185-0.12
		c0.034-0.02,0.065-0.047,0.1-0.064c0.069-0.034,0.143-0.055,0.216-0.077c0.035-0.011,0.067-0.028,0.103-0.036
		C20.268,30.014,20.383,30,20.5,30c0.282,0,0.583,0.108,0.975,0.351c0.268,0.165,0.913,0.468,1.104,0.557L24,30v-5h6l0.907-1.421
		c-0.089-0.191-0.392-0.837-0.557-1.105c-0.08-0.129-0.146-0.256-0.198-0.38c-0.103-0.248-0.15-0.485-0.141-0.716
		c0.005-0.115,0.023-0.229,0.056-0.341c0.101-0.351,0.347-0.654,0.663-0.837c0.105-0.061,0.219-0.109,0.337-0.141
		c0.486-0.129,0.964-0.042,1.344,0.25C32.785,20.596,33,21.029,33,21.5c0,0.282-0.108,0.583-0.351,0.975
		c-0.165,0.268-0.468,0.913-0.557,1.104L33,25h6v5l1.421,0.907c0.191-0.089,0.836-0.391,1.105-0.557
		c0.517-0.321,0.986-0.415,1.438-0.283c0.468,0.135,0.851,0.527,0.978,1C44.072,31.554,43.983,32.031,43.691,32.411z"/>
</g>
<g id="grid" display="none">
	<g display="inline">
		<line fill="none" stroke="#00AEEF" stroke-width="0.05" stroke-miterlimit="10" x1="48" y1="0" x2="48" y2="48"/>
		<line fill="none" stroke="#00AEEF" stroke-width="0.05" stroke-miterlimit="10" x1="47" y1="0" x2="47" y2="48"/>
		<line fill="none" stroke="#00AEEF" stroke-width="0.05" stroke-miterlimit="10" x1="46" y1="0" x2="46" y2="48"/>
		<line fill="none" stroke="#00AEEF" stroke-width="0.05" stroke-miterlimit="10" x1="45" y1="0" x2="45" y2="48"/>
		<line fill="none" stroke="#00AEEF" stroke-width="0.05" stroke-miterlimit="10" x1="44" y1="0" x2="44" y2="48"/>
		<line fill="none" stroke="#00AEEF" stroke-width="0.05" stroke-miterlimit="10" x1="43" y1="0" x2="43" y2="48"/>
		<line fill="none" stroke="#00AEEF" stroke-width="0.05" stroke-miterlimit="10" x1="42" y1="0" x2="42" y2="48"/>
		<line fill="none" stroke="#00AEEF" stroke-width="0.05" stroke-miterlimit="10" x1="41" y1="0" x2="41" y2="48"/>
		<line fill="none" stroke="#00AEEF" stroke-width="0.05" stroke-miterlimit="10" x1="40" y1="0" x2="40" y2="48"/>
		<line fill="none" stroke="#00AEEF" stroke-width="0.05" stroke-miterlimit="10" x1="39" y1="0" x2="39" y2="48"/>
		<line fill="none" stroke="#00AEEF" stroke-width="0.05" stroke-miterlimit="10" x1="38" y1="0" x2="38" y2="48"/>
		<line fill="none" stroke="#00AEEF" stroke-width="0.05" stroke-miterlimit="10" x1="37" y1="0" x2="37" y2="48"/>
		<line fill="none" stroke="#00AEEF" stroke-width="0.05" stroke-miterlimit="10" x1="36" y1="0" x2="36" y2="48"/>
		<line fill="none" stroke="#00AEEF" stroke-width="0.05" stroke-miterlimit="10" x1="35" y1="0" x2="35" y2="48"/>
		<line fill="none" stroke="#00AEEF" stroke-width="0.05" stroke-miterlimit="10" x1="34" y1="0" x2="34" y2="48"/>
		<line fill="none" stroke="#00AEEF" stroke-width="0.05" stroke-miterlimit="10" x1="33" y1="0" x2="33" y2="48"/>
		<line fill="none" stroke="#00AEEF" stroke-width="0.05" stroke-miterlimit="10" x1="32" y1="0" x2="32" y2="48"/>
		<line fill="none" stroke="#00AEEF" stroke-width="0.05" stroke-miterlimit="10" x1="31" y1="0" x2="31" y2="48"/>
		<line fill="none" stroke="#00AEEF" stroke-width="0.05" stroke-miterlimit="10" x1="30" y1="0" x2="30" y2="48"/>
		<line fill="none" stroke="#00AEEF" stroke-width="0.05" stroke-miterlimit="10" x1="29" y1="0" x2="29" y2="48"/>
		<line fill="none" stroke="#00AEEF" stroke-width="0.05" stroke-miterlimit="10" x1="28" y1="0" x2="28" y2="48"/>
		<line fill="none" stroke="#00AEEF" stroke-width="0.05" stroke-miterlimit="10" x1="27" y1="0" x2="27" y2="48"/>
		<line fill="none" stroke="#00AEEF" stroke-width="0.05" stroke-miterlimit="10" x1="26" y1="0" x2="26" y2="48"/>
		<line fill="none" stroke="#00AEEF" stroke-width="0.05" stroke-miterlimit="10" x1="25" y1="0" x2="25" y2="48"/>
		<line fill="none" stroke="#00AEEF" stroke-width="0.05" stroke-miterlimit="10" x1="24" y1="0" x2="24" y2="48"/>
		<line fill="none" stroke="#00AEEF" stroke-width="0.05" stroke-miterlimit="10" x1="23" y1="0" x2="23" y2="48"/>
		<line fill="none" stroke="#00AEEF" stroke-width="0.05" stroke-miterlimit="10" x1="22" y1="0" x2="22" y2="48"/>
		<line fill="none" stroke="#00AEEF" stroke-width="0.05" stroke-miterlimit="10" x1="21" y1="0" x2="21" y2="48"/>
		<line fill="none" stroke="#00AEEF" stroke-width="0.05" stroke-miterlimit="10" x1="20" y1="0" x2="20" y2="48"/>
		<line fill="none" stroke="#00AEEF" stroke-width="0.05" stroke-miterlimit="10" x1="19" y1="0" x2="19" y2="48"/>
		<line fill="none" stroke="#00AEEF" stroke-width="0.05" stroke-miterlimit="10" x1="18" y1="0" x2="18" y2="48"/>
		<line fill="none" stroke="#00AEEF" stroke-width="0.05" stroke-miterlimit="10" x1="17" y1="0" x2="17" y2="48"/>
		<line fill="none" stroke="#00AEEF" stroke-width="0.05" stroke-miterlimit="10" x1="16" y1="0" x2="16" y2="48"/>
		<line fill="none" stroke="#00AEEF" stroke-width="0.05" stroke-miterlimit="10" x1="15" y1="0" x2="15" y2="48"/>
		<line fill="none" stroke="#00AEEF" stroke-width="0.05" stroke-miterlimit="10" x1="14" y1="0" x2="14" y2="48"/>
		<line fill="none" stroke="#00AEEF" stroke-width="0.05" stroke-miterlimit="10" x1="13" y1="0" x2="13" y2="48"/>
		<line fill="none" stroke="#00AEEF" stroke-width="0.05" stroke-miterlimit="10" x1="12" y1="0" x2="12" y2="48"/>
		<line fill="none" stroke="#00AEEF" stroke-width="0.05" stroke-miterlimit="10" x1="11" y1="0" x2="11" y2="48"/>
		<line fill="none" stroke="#00AEEF" stroke-width="0.05" stroke-miterlimit="10" x1="10" y1="0" x2="10" y2="48"/>
		<line fill="none" stroke="#00AEEF" stroke-width="0.05" stroke-miterlimit="10" x1="9" y1="0" x2="9" y2="48"/>
		<line fill="none" stroke="#00AEEF" stroke-width="0.05" stroke-miterlimit="10" x1="8" y1="0" x2="8" y2="48"/>
		<line fill="none" stroke="#00AEEF" stroke-width="0.05" stroke-miterlimit="10" x1="7" y1="0" x2="7" y2="48"/>
		<line fill="none" stroke="#00AEEF" stroke-width="0.05" stroke-miterlimit="10" x1="6" y1="0" x2="6" y2="48"/>
		<line fill="none" stroke="#00AEEF" stroke-width="0.05" stroke-miterlimit="10" x1="5" y1="0" x2="5" y2="48"/>
		<line fill="none" stroke="#00AEEF" stroke-width="0.05" stroke-miterlimit="10" x1="4" y1="0" x2="4" y2="48"/>
		<line fill="none" stroke="#00AEEF" stroke-width="0.05" stroke-miterlimit="10" x1="3" y1="0" x2="3" y2="48"/>
		<line fill="none" stroke="#00AEEF" stroke-width="0.05" stroke-miterlimit="10" x1="2" y1="0" x2="2" y2="48"/>
		<line fill="none" stroke="#00AEEF" stroke-width="0.05" stroke-miterlimit="10" x1="1" y1="0" x2="1" y2="48"/>
		<line fill="none" stroke="#00AEEF" stroke-width="0.05" stroke-miterlimit="10" x1="0" y1="0" x2="0" y2="48"/>
		<line fill="none" stroke="#00AEEF" stroke-width="0.05" stroke-miterlimit="10" x1="48" y1="0" x2="0" y2="0"/>
		<line fill="none" stroke="#00AEEF" stroke-width="0.05" stroke-miterlimit="10" x1="48" y1="1" x2="0" y2="1"/>
		<line fill="none" stroke="#00AEEF" stroke-width="0.05" stroke-miterlimit="10" x1="48" y1="2" x2="0" y2="2"/>
		<line fill="none" stroke="#00AEEF" stroke-width="0.05" stroke-miterlimit="10" x1="48" y1="3" x2="0" y2="3"/>
		<line fill="none" stroke="#00AEEF" stroke-width="0.05" stroke-miterlimit="10" x1="48" y1="4" x2="0" y2="4"/>
		<line fill="none" stroke="#00AEEF" stroke-width="0.05" stroke-miterlimit="10" x1="48" y1="5" x2="0" y2="5"/>
		<line fill="none" stroke="#00AEEF" stroke-width="0.05" stroke-miterlimit="10" x1="48" y1="6" x2="0" y2="6"/>
		<line fill="none" stroke="#00AEEF" stroke-width="0.05" stroke-miterlimit="10" x1="48" y1="7" x2="0" y2="7"/>
		<line fill="none" stroke="#00AEEF" stroke-width="0.05" stroke-miterlimit="10" x1="48" y1="8" x2="0" y2="8"/>
		<line fill="none" stroke="#00AEEF" stroke-width="0.05" stroke-miterlimit="10" x1="48" y1="9" x2="0" y2="9"/>
		<line fill="none" stroke="#00AEEF" stroke-width="0.05" stroke-miterlimit="10" x1="48" y1="10" x2="0" y2="10"/>
		<line fill="none" stroke="#00AEEF" stroke-width="0.05" stroke-miterlimit="10" x1="48" y1="11" x2="0" y2="11"/>
		<line fill="none" stroke="#00AEEF" stroke-width="0.05" stroke-miterlimit="10" x1="48" y1="12" x2="0" y2="12"/>
		<line fill="none" stroke="#00AEEF" stroke-width="0.05" stroke-miterlimit="10" x1="48" y1="13" x2="0" y2="13"/>
		<line fill="none" stroke="#00AEEF" stroke-width="0.05" stroke-miterlimit="10" x1="48" y1="14" x2="0" y2="14"/>
		<line fill="none" stroke="#00AEEF" stroke-width="0.05" stroke-miterlimit="10" x1="48" y1="15" x2="0" y2="15"/>
		<line fill="none" stroke="#00AEEF" stroke-width="0.05" stroke-miterlimit="10" x1="48" y1="16" x2="0" y2="16"/>
		<line fill="none" stroke="#00AEEF" stroke-width="0.05" stroke-miterlimit="10" x1="48" y1="17" x2="0" y2="17"/>
		<line fill="none" stroke="#00AEEF" stroke-width="0.05" stroke-miterlimit="10" x1="48" y1="18" x2="0" y2="18"/>
		<line fill="none" stroke="#00AEEF" stroke-width="0.05" stroke-miterlimit="10" x1="48" y1="19" x2="0" y2="19"/>
		<line fill="none" stroke="#00AEEF" stroke-width="0.05" stroke-miterlimit="10" x1="48" y1="20" x2="0" y2="20"/>
		<line fill="none" stroke="#00AEEF" stroke-width="0.05" stroke-miterlimit="10" x1="48" y1="21" x2="0" y2="21"/>
		<line fill="none" stroke="#00AEEF" stroke-width="0.05" stroke-miterlimit="10" x1="48" y1="22" x2="0" y2="22"/>
		<line fill="none" stroke="#00AEEF" stroke-width="0.05" stroke-miterlimit="10" x1="48" y1="23" x2="0" y2="23"/>
		<line fill="none" stroke="#00AEEF" stroke-width="0.05" stroke-miterlimit="10" x1="48" y1="24" x2="0" y2="24"/>
		<line fill="none" stroke="#00AEEF" stroke-width="0.05" stroke-miterlimit="10" x1="48" y1="25" x2="0" y2="25"/>
		<line fill="none" stroke="#00AEEF" stroke-width="0.05" stroke-miterlimit="10" x1="48" y1="26" x2="0" y2="26"/>
		<line fill="none" stroke="#00AEEF" stroke-width="0.05" stroke-miterlimit="10" x1="48" y1="27" x2="0" y2="27"/>
		<line fill="none" stroke="#00AEEF" stroke-width="0.05" stroke-miterlimit="10" x1="48" y1="28" x2="0" y2="28"/>
		<line fill="none" stroke="#00AEEF" stroke-width="0.05" stroke-miterlimit="10" x1="48" y1="29" x2="0" y2="29"/>
		<line fill="none" stroke="#00AEEF" stroke-width="0.05" stroke-miterlimit="10" x1="48" y1="30" x2="0" y2="30"/>
		<line fill="none" stroke="#00AEEF" stroke-width="0.05" stroke-miterlimit="10" x1="48" y1="31" x2="0" y2="31"/>
		<line fill="none" stroke="#00AEEF" stroke-width="0.05" stroke-miterlimit="10" x1="48" y1="32" x2="0" y2="32"/>
		<line fill="none" stroke="#00AEEF" stroke-width="0.05" stroke-miterlimit="10" x1="48" y1="33" x2="0" y2="33"/>
		<line fill="none" stroke="#00AEEF" stroke-width="0.05" stroke-miterlimit="10" x1="48" y1="34" x2="0" y2="34"/>
		<line fill="none" stroke="#00AEEF" stroke-width="0.05" stroke-miterlimit="10" x1="48" y1="35" x2="0" y2="35"/>
		<line fill="none" stroke="#00AEEF" stroke-width="0.05" stroke-miterlimit="10" x1="48" y1="36" x2="0" y2="36"/>
		<line fill="none" stroke="#00AEEF" stroke-width="0.05" stroke-miterlimit="10" x1="48" y1="37" x2="0" y2="37"/>
		<line fill="none" stroke="#00AEEF" stroke-width="0.05" stroke-miterlimit="10" x1="48" y1="38" x2="0" y2="38"/>
		<line fill="none" stroke="#00AEEF" stroke-width="0.05" stroke-miterlimit="10" x1="48" y1="39" x2="0" y2="39"/>
		<line fill="none" stroke="#00AEEF" stroke-width="0.05" stroke-miterlimit="10" x1="48" y1="40" x2="0" y2="40"/>
		<line fill="none" stroke="#00AEEF" stroke-width="0.05" stroke-miterlimit="10" x1="48" y1="41" x2="0" y2="41"/>
		<line fill="none" stroke="#00AEEF" stroke-width="0.05" stroke-miterlimit="10" x1="48" y1="42" x2="0" y2="42"/>
		<line fill="none" stroke="#00AEEF" stroke-width="0.05" stroke-miterlimit="10" x1="48" y1="43" x2="0" y2="43"/>
		<line fill="none" stroke="#00AEEF" stroke-width="0.05" stroke-miterlimit="10" x1="48" y1="44" x2="0" y2="44"/>
		<line fill="none" stroke="#00AEEF" stroke-width="0.05" stroke-miterlimit="10" x1="48" y1="45" x2="0" y2="45"/>
		<line fill="none" stroke="#00AEEF" stroke-width="0.05" stroke-miterlimit="10" x1="48" y1="46" x2="0" y2="46"/>
		<line fill="none" stroke="#00AEEF" stroke-width="0.05" stroke-miterlimit="10" x1="48" y1="47" x2="0" y2="47"/>
		<line fill="none" stroke="#00AEEF" stroke-width="0.05" stroke-miterlimit="10" x1="48" y1="48" x2="0" y2="48"/>
	</g>
</g>
</svg>
