<?xml version="1.0" encoding="UTF-8" standalone="no"?>
<svg
   xmlns:dc="http://purl.org/dc/elements/1.1/"
   xmlns:cc="http://creativecommons.org/ns#"
   xmlns:rdf="http://www.w3.org/1999/02/22-rdf-syntax-ns#"
   xmlns:svg="http://www.w3.org/2000/svg"
   xmlns="http://www.w3.org/2000/svg"
   xmlns:sodipodi="http://sodipodi.sourceforge.net/DTD/sodipodi-0.dtd"
   xmlns:inkscape="http://www.inkscape.org/namespaces/inkscape"
   version="1.1"
   x="0px"
   y="0px"
   viewBox="0 0 48 48"
   enable-background="new 0 0 48 48"
   xml:space="preserve"
   id="svg204"
   sodipodi:docname="Unpin.svg"
   inkscape:version="1.0.1 (3bc2e813f5, 2020-09-07)"><metadata
   id="metadata210"><rdf:RDF><cc:Work
       rdf:about=""><dc:format>image/svg+xml</dc:format><dc:type
         rdf:resource="http://purl.org/dc/dcmitype/StillImage" /><dc:title></dc:title></cc:Work></rdf:RDF></metadata><defs
   id="defs208"><inkscape:path-effect
     effect="powerstroke"
     id="path-effect216"
     is_visible="true"
     lpeversion="1"
     offset_points="0,0.5"
     sort_points="true"
     interpolator_type="CubicBezierJohan"
     interpolator_beta="0.2"
     start_linecap_type="zerowidth"
     linejoin_type="extrp_arc"
     miter_limit="4"
     scale_width="1"
     end_linecap_type="zerowidth" /></defs><sodipodi:namedview
   pagecolor="#ffffff"
   bordercolor="#666666"
   borderopacity="1"
   objecttolerance="10"
   gridtolerance="10"
   guidetolerance="10"
   inkscape:pageopacity="0"
   inkscape:pageshadow="2"
   inkscape:window-width="1920"
   inkscape:window-height="1001"
   id="namedview206"
   showgrid="false"
   inkscape:zoom="17.291667"
   inkscape:cx="24"
   inkscape:cy="24"
   inkscape:window-x="-9"
   inkscape:window-y="-9"
   inkscape:window-maximized="1"
   inkscape:current-layer="svg204" />
<g
   id="pictogram"
   transform="matrix(0.72912602,0.72912602,-0.69781294,0.69781294,21.224389,-11.171836)"
   style="stroke-width:0.996339">
	<path
   d="M 36.852,26.823 31.039,17.388 32.821281,3.1935236 32,2 H 16 L 15.009,3.136 16.961,17.389 11.148,26.824 11,27.348 V 31 l 1,1 h 11 v 14 h 2 V 32 h 11 l 1,-1 V 27.348 Z M 35,30 H 13 v -2.369 l 5.852,-9.498 0.14,-0.66 L 17.146,4 h 13.707 l -1.845,13.473 0.14,0.66 5.852,9.498 z"
   id="path2"
   sodipodi:nodetypes="cccccccccccccccccccccccccccccc"
   style="stroke-width:0.996339" />
</g>
<g
   id="grid"
   display="none">
	<g
   display="inline"
   id="g201">
		<line
   fill="none"
   stroke="#00AEEF"
   stroke-width="0.05"
   stroke-miterlimit="10"
   x1="48"
   y1="0"
   x2="48"
   y2="48"
   id="line5" />
		<line
   fill="none"
   stroke="#00AEEF"
   stroke-width="0.05"
   stroke-miterlimit="10"
   x1="47"
   y1="0"
   x2="47"
   y2="48"
   id="line7" />
		<line
   fill="none"
   stroke="#00AEEF"
   stroke-width="0.05"
   stroke-miterlimit="10"
   x1="46"
   y1="0"
   x2="46"
   y2="48"
   id="line9" />
		<line
   fill="none"
   stroke="#00AEEF"
   stroke-width="0.05"
   stroke-miterlimit="10"
   x1="45"
   y1="0"
   x2="45"
   y2="48"
   id="line11" />
		<line
   fill="none"
   stroke="#00AEEF"
   stroke-width="0.05"
   stroke-miterlimit="10"
   x1="44"
   y1="0"
   x2="44"
   y2="48"
   id="line13" />
		<line
   fill="none"
   stroke="#00AEEF"
   stroke-width="0.05"
   stroke-miterlimit="10"
   x1="43"
   y1="0"
   x2="43"
   y2="48"
   id="line15" />
		<line
   fill="none"
   stroke="#00AEEF"
   stroke-width="0.05"
   stroke-miterlimit="10"
   x1="42"
   y1="0"
   x2="42"
   y2="48"
   id="line17" />
		<line
   fill="none"
   stroke="#00AEEF"
   stroke-width="0.05"
   stroke-miterlimit="10"
   x1="41"
   y1="0"
   x2="41"
   y2="48"
   id="line19" />
		<line
   fill="none"
   stroke="#00AEEF"
   stroke-width="0.05"
   stroke-miterlimit="10"
   x1="40"
   y1="0"
   x2="40"
   y2="48"
   id="line21" />
		<line
   fill="none"
   stroke="#00AEEF"
   stroke-width="0.05"
   stroke-miterlimit="10"
   x1="39"
   y1="0"
   x2="39"
   y2="48"
   id="line23" />
		<line
   fill="none"
   stroke="#00AEEF"
   stroke-width="0.05"
   stroke-miterlimit="10"
   x1="38"
   y1="0"
   x2="38"
   y2="48"
   id="line25" />
		<line
   fill="none"
   stroke="#00AEEF"
   stroke-width="0.05"
   stroke-miterlimit="10"
   x1="37"
   y1="0"
   x2="37"
   y2="48"
   id="line27" />
		<line
   fill="none"
   stroke="#00AEEF"
   stroke-width="0.05"
   stroke-miterlimit="10"
   x1="36"
   y1="0"
   x2="36"
   y2="48"
   id="line29" />
		<line
   fill="none"
   stroke="#00AEEF"
   stroke-width="0.05"
   stroke-miterlimit="10"
   x1="35"
   y1="0"
   x2="35"
   y2="48"
   id="line31" />
		<line
   fill="none"
   stroke="#00AEEF"
   stroke-width="0.05"
   stroke-miterlimit="10"
   x1="34"
   y1="0"
   x2="34"
   y2="48"
   id="line33" />
		<line
   fill="none"
   stroke="#00AEEF"
   stroke-width="0.05"
   stroke-miterlimit="10"
   x1="33"
   y1="0"
   x2="33"
   y2="48"
   id="line35" />
		<line
   fill="none"
   stroke="#00AEEF"
   stroke-width="0.05"
   stroke-miterlimit="10"
   x1="32"
   y1="0"
   x2="32"
   y2="48"
   id="line37" />
		<line
   fill="none"
   stroke="#00AEEF"
   stroke-width="0.05"
   stroke-miterlimit="10"
   x1="31"
   y1="0"
   x2="31"
   y2="48"
   id="line39" />
		<line
   fill="none"
   stroke="#00AEEF"
   stroke-width="0.05"
   stroke-miterlimit="10"
   x1="30"
   y1="0"
   x2="30"
   y2="48"
   id="line41" />
		<line
   fill="none"
   stroke="#00AEEF"
   stroke-width="0.05"
   stroke-miterlimit="10"
   x1="29"
   y1="0"
   x2="29"
   y2="48"
   id="line43" />
		<line
   fill="none"
   stroke="#00AEEF"
   stroke-width="0.05"
   stroke-miterlimit="10"
   x1="28"
   y1="0"
   x2="28"
   y2="48"
   id="line45" />
		<line
   fill="none"
   stroke="#00AEEF"
   stroke-width="0.05"
   stroke-miterlimit="10"
   x1="27"
   y1="0"
   x2="27"
   y2="48"
   id="line47" />
		<line
   fill="none"
   stroke="#00AEEF"
   stroke-width="0.05"
   stroke-miterlimit="10"
   x1="26"
   y1="0"
   x2="26"
   y2="48"
   id="line49" />
		<line
   fill="none"
   stroke="#00AEEF"
   stroke-width="0.05"
   stroke-miterlimit="10"
   x1="25"
   y1="0"
   x2="25"
   y2="48"
   id="line51" />
		<line
   fill="none"
   stroke="#00AEEF"
   stroke-width="0.05"
   stroke-miterlimit="10"
   x1="24"
   y1="0"
   x2="24"
   y2="48"
   id="line53" />
		<line
   fill="none"
   stroke="#00AEEF"
   stroke-width="0.05"
   stroke-miterlimit="10"
   x1="23"
   y1="0"
   x2="23"
   y2="48"
   id="line55" />
		<line
   fill="none"
   stroke="#00AEEF"
   stroke-width="0.05"
   stroke-miterlimit="10"
   x1="22"
   y1="0"
   x2="22"
   y2="48"
   id="line57" />
		<line
   fill="none"
   stroke="#00AEEF"
   stroke-width="0.05"
   stroke-miterlimit="10"
   x1="21"
   y1="0"
   x2="21"
   y2="48"
   id="line59" />
		<line
   fill="none"
   stroke="#00AEEF"
   stroke-width="0.05"
   stroke-miterlimit="10"
   x1="20"
   y1="0"
   x2="20"
   y2="48"
   id="line61" />
		<line
   fill="none"
   stroke="#00AEEF"
   stroke-width="0.05"
   stroke-miterlimit="10"
   x1="19"
   y1="0"
   x2="19"
   y2="48"
   id="line63" />
		<line
   fill="none"
   stroke="#00AEEF"
   stroke-width="0.05"
   stroke-miterlimit="10"
   x1="18"
   y1="0"
   x2="18"
   y2="48"
   id="line65" />
		<line
   fill="none"
   stroke="#00AEEF"
   stroke-width="0.05"
   stroke-miterlimit="10"
   x1="17"
   y1="0"
   x2="17"
   y2="48"
   id="line67" />
		<line
   fill="none"
   stroke="#00AEEF"
   stroke-width="0.05"
   stroke-miterlimit="10"
   x1="16"
   y1="0"
   x2="16"
   y2="48"
   id="line69" />
		<line
   fill="none"
   stroke="#00AEEF"
   stroke-width="0.05"
   stroke-miterlimit="10"
   x1="15"
   y1="0"
   x2="15"
   y2="48"
   id="line71" />
		<line
   fill="none"
   stroke="#00AEEF"
   stroke-width="0.05"
   stroke-miterlimit="10"
   x1="14"
   y1="0"
   x2="14"
   y2="48"
   id="line73" />
		<line
   fill="none"
   stroke="#00AEEF"
   stroke-width="0.05"
   stroke-miterlimit="10"
   x1="13"
   y1="0"
   x2="13"
   y2="48"
   id="line75" />
		<line
   fill="none"
   stroke="#00AEEF"
   stroke-width="0.05"
   stroke-miterlimit="10"
   x1="12"
   y1="0"
   x2="12"
   y2="48"
   id="line77" />
		<line
   fill="none"
   stroke="#00AEEF"
   stroke-width="0.05"
   stroke-miterlimit="10"
   x1="11"
   y1="0"
   x2="11"
   y2="48"
   id="line79" />
		<line
   fill="none"
   stroke="#00AEEF"
   stroke-width="0.05"
   stroke-miterlimit="10"
   x1="10"
   y1="0"
   x2="10"
   y2="48"
   id="line81" />
		<line
   fill="none"
   stroke="#00AEEF"
   stroke-width="0.05"
   stroke-miterlimit="10"
   x1="9"
   y1="0"
   x2="9"
   y2="48"
   id="line83" />
		<line
   fill="none"
   stroke="#00AEEF"
   stroke-width="0.05"
   stroke-miterlimit="10"
   x1="8"
   y1="0"
   x2="8"
   y2="48"
   id="line85" />
		<line
   fill="none"
   stroke="#00AEEF"
   stroke-width="0.05"
   stroke-miterlimit="10"
   x1="7"
   y1="0"
   x2="7"
   y2="48"
   id="line87" />
		<line
   fill="none"
   stroke="#00AEEF"
   stroke-width="0.05"
   stroke-miterlimit="10"
   x1="6"
   y1="0"
   x2="6"
   y2="48"
   id="line89" />
		<line
   fill="none"
   stroke="#00AEEF"
   stroke-width="0.05"
   stroke-miterlimit="10"
   x1="5"
   y1="0"
   x2="5"
   y2="48"
   id="line91" />
		<line
   fill="none"
   stroke="#00AEEF"
   stroke-width="0.05"
   stroke-miterlimit="10"
   x1="4"
   y1="0"
   x2="4"
   y2="48"
   id="line93" />
		<line
   fill="none"
   stroke="#00AEEF"
   stroke-width="0.05"
   stroke-miterlimit="10"
   x1="3"
   y1="0"
   x2="3"
   y2="48"
   id="line95" />
		<line
   fill="none"
   stroke="#00AEEF"
   stroke-width="0.05"
   stroke-miterlimit="10"
   x1="2"
   y1="0"
   x2="2"
   y2="48"
   id="line97" />
		<line
   fill="none"
   stroke="#00AEEF"
   stroke-width="0.05"
   stroke-miterlimit="10"
   x1="1"
   y1="0"
   x2="1"
   y2="48"
   id="line99" />
		<line
   fill="none"
   stroke="#00AEEF"
   stroke-width="0.05"
   stroke-miterlimit="10"
   x1="0"
   y1="0"
   x2="0"
   y2="48"
   id="line101" />
		<line
   fill="none"
   stroke="#00AEEF"
   stroke-width="0.05"
   stroke-miterlimit="10"
   x1="48"
   y1="0"
   x2="0"
   y2="0"
   id="line103" />
		<line
   fill="none"
   stroke="#00AEEF"
   stroke-width="0.05"
   stroke-miterlimit="10"
   x1="48"
   y1="1"
   x2="0"
   y2="1"
   id="line105" />
		<line
   fill="none"
   stroke="#00AEEF"
   stroke-width="0.05"
   stroke-miterlimit="10"
   x1="48"
   y1="2"
   x2="0"
   y2="2"
   id="line107" />
		<line
   fill="none"
   stroke="#00AEEF"
   stroke-width="0.05"
   stroke-miterlimit="10"
   x1="48"
   y1="3"
   x2="0"
   y2="3"
   id="line109" />
		<line
   fill="none"
   stroke="#00AEEF"
   stroke-width="0.05"
   stroke-miterlimit="10"
   x1="48"
   y1="4"
   x2="0"
   y2="4"
   id="line111" />
		<line
   fill="none"
   stroke="#00AEEF"
   stroke-width="0.05"
   stroke-miterlimit="10"
   x1="48"
   y1="5"
   x2="0"
   y2="5"
   id="line113" />
		<line
   fill="none"
   stroke="#00AEEF"
   stroke-width="0.05"
   stroke-miterlimit="10"
   x1="48"
   y1="6"
   x2="0"
   y2="6"
   id="line115" />
		<line
   fill="none"
   stroke="#00AEEF"
   stroke-width="0.05"
   stroke-miterlimit="10"
   x1="48"
   y1="7"
   x2="0"
   y2="7"
   id="line117" />
		<line
   fill="none"
   stroke="#00AEEF"
   stroke-width="0.05"
   stroke-miterlimit="10"
   x1="48"
   y1="8"
   x2="0"
   y2="8"
   id="line119" />
		<line
   fill="none"
   stroke="#00AEEF"
   stroke-width="0.05"
   stroke-miterlimit="10"
   x1="48"
   y1="9"
   x2="0"
   y2="9"
   id="line121" />
		<line
   fill="none"
   stroke="#00AEEF"
   stroke-width="0.05"
   stroke-miterlimit="10"
   x1="48"
   y1="10"
   x2="0"
   y2="10"
   id="line123" />
		<line
   fill="none"
   stroke="#00AEEF"
   stroke-width="0.05"
   stroke-miterlimit="10"
   x1="48"
   y1="11"
   x2="0"
   y2="11"
   id="line125" />
		<line
   fill="none"
   stroke="#00AEEF"
   stroke-width="0.05"
   stroke-miterlimit="10"
   x1="48"
   y1="12"
   x2="0"
   y2="12"
   id="line127" />
		<line
   fill="none"
   stroke="#00AEEF"
   stroke-width="0.05"
   stroke-miterlimit="10"
   x1="48"
   y1="13"
   x2="0"
   y2="13"
   id="line129" />
		<line
   fill="none"
   stroke="#00AEEF"
   stroke-width="0.05"
   stroke-miterlimit="10"
   x1="48"
   y1="14"
   x2="0"
   y2="14"
   id="line131" />
		<line
   fill="none"
   stroke="#00AEEF"
   stroke-width="0.05"
   stroke-miterlimit="10"
   x1="48"
   y1="15"
   x2="0"
   y2="15"
   id="line133" />
		<line
   fill="none"
   stroke="#00AEEF"
   stroke-width="0.05"
   stroke-miterlimit="10"
   x1="48"
   y1="16"
   x2="0"
   y2="16"
   id="line135" />
		<line
   fill="none"
   stroke="#00AEEF"
   stroke-width="0.05"
   stroke-miterlimit="10"
   x1="48"
   y1="17"
   x2="0"
   y2="17"
   id="line137" />
		<line
   fill="none"
   stroke="#00AEEF"
   stroke-width="0.05"
   stroke-miterlimit="10"
   x1="48"
   y1="18"
   x2="0"
   y2="18"
   id="line139" />
		<line
   fill="none"
   stroke="#00AEEF"
   stroke-width="0.05"
   stroke-miterlimit="10"
   x1="48"
   y1="19"
   x2="0"
   y2="19"
   id="line141" />
		<line
   fill="none"
   stroke="#00AEEF"
   stroke-width="0.05"
   stroke-miterlimit="10"
   x1="48"
   y1="20"
   x2="0"
   y2="20"
   id="line143" />
		<line
   fill="none"
   stroke="#00AEEF"
   stroke-width="0.05"
   stroke-miterlimit="10"
   x1="48"
   y1="21"
   x2="0"
   y2="21"
   id="line145" />
		<line
   fill="none"
   stroke="#00AEEF"
   stroke-width="0.05"
   stroke-miterlimit="10"
   x1="48"
   y1="22"
   x2="0"
   y2="22"
   id="line147" />
		<line
   fill="none"
   stroke="#00AEEF"
   stroke-width="0.05"
   stroke-miterlimit="10"
   x1="48"
   y1="23"
   x2="0"
   y2="23"
   id="line149" />
		<line
   fill="none"
   stroke="#00AEEF"
   stroke-width="0.05"
   stroke-miterlimit="10"
   x1="48"
   y1="24"
   x2="0"
   y2="24"
   id="line151" />
		<line
   fill="none"
   stroke="#00AEEF"
   stroke-width="0.05"
   stroke-miterlimit="10"
   x1="48"
   y1="25"
   x2="0"
   y2="25"
   id="line153" />
		<line
   fill="none"
   stroke="#00AEEF"
   stroke-width="0.05"
   stroke-miterlimit="10"
   x1="48"
   y1="26"
   x2="0"
   y2="26"
   id="line155" />
		<line
   fill="none"
   stroke="#00AEEF"
   stroke-width="0.05"
   stroke-miterlimit="10"
   x1="48"
   y1="27"
   x2="0"
   y2="27"
   id="line157" />
		<line
   fill="none"
   stroke="#00AEEF"
   stroke-width="0.05"
   stroke-miterlimit="10"
   x1="48"
   y1="28"
   x2="0"
   y2="28"
   id="line159" />
		<line
   fill="none"
   stroke="#00AEEF"
   stroke-width="0.05"
   stroke-miterlimit="10"
   x1="48"
   y1="29"
   x2="0"
   y2="29"
   id="line161" />
		<line
   fill="none"
   stroke="#00AEEF"
   stroke-width="0.05"
   stroke-miterlimit="10"
   x1="48"
   y1="30"
   x2="0"
   y2="30"
   id="line163" />
		<line
   fill="none"
   stroke="#00AEEF"
   stroke-width="0.05"
   stroke-miterlimit="10"
   x1="48"
   y1="31"
   x2="0"
   y2="31"
   id="line165" />
		<line
   fill="none"
   stroke="#00AEEF"
   stroke-width="0.05"
   stroke-miterlimit="10"
   x1="48"
   y1="32"
   x2="0"
   y2="32"
   id="line167" />
		<line
   fill="none"
   stroke="#00AEEF"
   stroke-width="0.05"
   stroke-miterlimit="10"
   x1="48"
   y1="33"
   x2="0"
   y2="33"
   id="line169" />
		<line
   fill="none"
   stroke="#00AEEF"
   stroke-width="0.05"
   stroke-miterlimit="10"
   x1="48"
   y1="34"
   x2="0"
   y2="34"
   id="line171" />
		<line
   fill="none"
   stroke="#00AEEF"
   stroke-width="0.05"
   stroke-miterlimit="10"
   x1="48"
   y1="35"
   x2="0"
   y2="35"
   id="line173" />
		<line
   fill="none"
   stroke="#00AEEF"
   stroke-width="0.05"
   stroke-miterlimit="10"
   x1="48"
   y1="36"
   x2="0"
   y2="36"
   id="line175" />
		<line
   fill="none"
   stroke="#00AEEF"
   stroke-width="0.05"
   stroke-miterlimit="10"
   x1="48"
   y1="37"
   x2="0"
   y2="37"
   id="line177" />
		<line
   fill="none"
   stroke="#00AEEF"
   stroke-width="0.05"
   stroke-miterlimit="10"
   x1="48"
   y1="38"
   x2="0"
   y2="38"
   id="line179" />
		<line
   fill="none"
   stroke="#00AEEF"
   stroke-width="0.05"
   stroke-miterlimit="10"
   x1="48"
   y1="39"
   x2="0"
   y2="39"
   id="line181" />
		<line
   fill="none"
   stroke="#00AEEF"
   stroke-width="0.05"
   stroke-miterlimit="10"
   x1="48"
   y1="40"
   x2="0"
   y2="40"
   id="line183" />
		<line
   fill="none"
   stroke="#00AEEF"
   stroke-width="0.05"
   stroke-miterlimit="10"
   x1="48"
   y1="41"
   x2="0"
   y2="41"
   id="line185" />
		<line
   fill="none"
   stroke="#00AEEF"
   stroke-width="0.05"
   stroke-miterlimit="10"
   x1="48"
   y1="42"
   x2="0"
   y2="42"
   id="line187" />
		<line
   fill="none"
   stroke="#00AEEF"
   stroke-width="0.05"
   stroke-miterlimit="10"
   x1="48"
   y1="43"
   x2="0"
   y2="43"
   id="line189" />
		<line
   fill="none"
   stroke="#00AEEF"
   stroke-width="0.05"
   stroke-miterlimit="10"
   x1="48"
   y1="44"
   x2="0"
   y2="44"
   id="line191" />
		<line
   fill="none"
   stroke="#00AEEF"
   stroke-width="0.05"
   stroke-miterlimit="10"
   x1="48"
   y1="45"
   x2="0"
   y2="45"
   id="line193" />
		<line
   fill="none"
   stroke="#00AEEF"
   stroke-width="0.05"
   stroke-miterlimit="10"
   x1="48"
   y1="46"
   x2="0"
   y2="46"
   id="line195" />
		<line
   fill="none"
   stroke="#00AEEF"
   stroke-width="0.05"
   stroke-miterlimit="10"
   x1="48"
   y1="47"
   x2="0"
   y2="47"
   id="line197" />
		<line
   fill="none"
   stroke="#00AEEF"
   stroke-width="0.05"
   stroke-miterlimit="10"
   x1="48"
   y1="48"
   x2="0"
   y2="48"
   id="line199" />
	</g>
</g>
<path
   style="fill:none;stroke:#000000;stroke-width:0.999998px;stroke-linecap:butt;stroke-linejoin:miter;stroke-opacity:1"
   d="M 4.685506,3.7591712 C 4.993425,4.0482803 5.2989041,4.3350956 5.6019627,4.6196352 43.438158,40.143767 43.544985,40.196661 43.544985,40.196661"
   id="path218"
   sodipodi:nodetypes="csc" /></svg>
